     1                                 %line 1+1 src/io.asm
     2                                 [section .data]
     3                                 
     4                                  NULL equ 0
     5                                  SYS_write equ 1
     6                                  STDOUT equ 1
     7                                 
     8                                 [section .text]
     9                                 
    10                                 
    11                                 
    12                                 
    13                                 
    14                                 
    15                                 
    16                                 
    17                                 
    18                                 [global printString]
    19                                 printString:
    20 00000000 48C7C200000000          mov rdx, 0
    21                                 
    22                                 
    23                                 checkChar:
    24 00000007 8A0417                  mov al, byte [rdi+rdx]
    25 0000000A 3C00                    cmp al, NULL
    26 0000000C 7403                    je done
    27 0000000E 48FFC2                  inc rdx
    28 00000011 EBF2                    jmp checkChar
    29                                 done:
    30                                 
    31                                 
    32                                 
    33 00000013 48C7C001000000          mov rax, SYS_write
    34 0000001A 4889FE                  mov rsi, rdi
    35 0000001D 48C7C701000000          mov rdi, STDOUT
    36                                 
    37 00000024 0F05                    syscall
    38                                 
    39 00000026 C3                      ret
