     1                                 %line 1+1 example.asm
     2                                 
     3                                 
     4                                 
     5                                 
     6                                 [section .data]
     7                                 
     8                                  SYS_exit equ 60
     9                                  EXIT_SUCCESS equ 0
    10                                 
    11 00000000 020000000000000002-     list dq 2, 2, -6, 11, 0, -10, -3
    12 00000000 00000000000000FAFF-
    13 00000000 FFFFFFFFFFFF0B0000-
    14 00000000 000000000000000000-
    15 00000000 00000000F6FFFFFFFF-
    16 00000000 FFFFFFFDFFFFFFFFFF-
    17 00000000 FFFF               
    18 00000038 07                      listLen db 7
    19                                 
    20                                 [section .text]
    21                                 
    22                                 [global _start]
    23                                 
    24                                 _start:
    25 00000000 8A0C25[00000000]        mov cl, byte [listLen]
    26 00000007 48C7C600000000          mov rsi, 0
    27                                 loop1:
    28 0000000E FF34F5[00000000]        push qword [list+rsi*8]
    29 00000015 48FFC6                  inc rsi
    30 00000018 E2F2                    loop loop1
    31                                 
    32 0000001A 8A0C25[00000000]        mov cl, byte [listLen]
    33 00000021 48C7C600000000          mov rsi, 0
    34                                 loop2:
    35 00000028 8F04F5[00000000]        pop qword [list+rsi*8]
    36 0000002F 48FFC6                  inc rsi
    37 00000032 E2F2                    loop loop2
    38                                 
    39                                 
    40                                 exit:
    41 00000034 48C7C03C000000          mov rax, SYS_exit
    42 0000003B 48C7C700000000          mov rdi, EXIT_SUCCESS
    43 00000042 0F05                    syscall
