     1                                 %line 1+1 example.asm
     2                                 
     3                                 
     4                                 
     5                                 
     6                                 
     7                                 [section .data]
     8                                 
     9                                  SYS_read equ 0
    10                                  SYS_write equ 1
    11                                  SYS_exit equ 60
    12                                 
    13                                  EXIT_SUCCESS equ 0
    14                                 
    15                                  STDIN equ 0
    16                                  STDOUT equ 1
    17                                 
    18                                  NULL equ 0
    19                                  LF equ 10
    20                                 
    21                                  FALSE equ 0
    22                                  TRUE equ 1
    23                                 
    24                                  SUCCESS equ 0
    25                                  UNSUCCESS equ 1
    26                                 
    27                                  STRING_IN_LEN equ 16
    28                                 
    29 00000000 0A00                    LFStr db LF,NULL
    30                                 
    31                                 [section .bss]
    32                                 
    33 00000000 <gap>                   stringIn resb STRING_IN_LEN
    34                                 
    35                                 [section .text]
    36                                 
    37                                 
    38                                 
    39                                 
    40                                 
    41                                 
    42                                 
    43                                 
    44                                 
    45                                 [global printString]
    46                                 printString:
    47 00000000 48C7C200000000          mov rdx, 0
    48                                 
    49                                 
    50                                 checkChar:
    51 00000007 8A0417                  mov al, byte [rdi+rdx]
    52 0000000A 3C00                    cmp al, NULL
    53 0000000C 7403                    je done
    54 0000000E 48FFC2                  inc rdx
    55 00000011 EBF2                    jmp checkChar
    56                                 done:
    57                                 
    58                                 
    59                                 
    60 00000013 48C7C001000000          mov rax, SYS_write
    61 0000001A 4889FE                  mov rsi, rdi
    62 0000001D 48C7C701000000          mov rdi, STDOUT
    63                                 
    64 00000024 0F05                    syscall
    65                                 
    66 00000026 C3                      ret
    67                                 
    68                                 
    69                                 
    70                                 
    71                                 
    72                                 
    73                                 
    74                                 
    75                                 
    76                                 [global readString]
    77                                 readString:
    78 00000027 55                      push rbp
    79 00000028 4889E5                  mov rbp, rsp
    80 0000002B 53                      push rbx
    81 0000002C 4154                    push r12
    82 0000002E 4155                    push r13
    83 00000030 4156                    push r14
    84                                 
    85 00000032 48C7C300000000          mov rbx, 0
    86 00000039 4989FC                  mov r12, rdi
    87 0000003C 49C7C600000000          mov r14, FALSE
    88                                 
    89                                 
    90                                 
    91                                 
    92                                 inputReadLoop:
    93                                 
    94                                 
    95                                 
    96                                 
    97                                 
    98                                 
    99                                 
   100                                 
   101 00000043 48C7C000000000          mov rax, SYS_read
   102 0000004A 48C7C700000000          mov rdi, STDIN
   103 00000051 498D341C                lea rsi, [r12+rbx]
   104 00000055 48C7C201000000          mov rdx, 1
   105 0000005C 0F05                    syscall
   106                                 
   107 0000005E 4883F800                cmp rax, 0
   108 00000062 740A                    je inputEOF
   109                                 
   110 00000064 41803C1C0A              cmp byte [r12+rbx], LF
   111 00000069 740C                    je inputLF
   112                                 
   113                                 
   114                                 
   115                                 
   116                                 
   117                                 
   118 0000006B 48FFC3                  inc rbx
   119 0000006E EBD1                    jmp inputReadLoop
   120                                 
   121                                 inputEOF:
   122 00000070 48C7C000000000          mov rax, 0
   123 00000077 EB01                    jmp inputEnd
   124                                 inputLF:
   125 00000079 4889D8                  mov rax, rbx
   126                                 
   127                                 inputEnd:
   128 0000007C 41C6041C00              mov byte [r12+rbx], NULL
   129                                 
   130 00000081 415E                    pop r14
   131 00000083 415D                    pop r13
   132 00000085 415C                    pop r12
   133 00000087 5B                      pop rbx
   134 00000088 5D                      pop rbp
   135 00000089 C3                      ret
   136                                 
   137                                 [global readPrint]
   138                                 readPrint:
   139 0000008A 55                      push rbp
   140 0000008B 4889E5                  mov rbp, rsp
   141 0000008E 4883EC10                sub rsp, STRING_IN_LEN
   142                                 
   143 00000092 488D7DF0                lea rdi, [rbp-STRING_IN_LEN]
   144 00000096 48C7C610000000          mov rsi, STRING_IN_LEN
   145 0000009D E880FFFFFF              call readString
   146 000000A2 4883F800                cmp rax, 0
   147 000000A6 740A                    je exitLoop
   148                                 
   149                                 
   150                                 
   151                                 
   152                                 
   153                                 
   154                                 
   155 000000A8 48C7C000000000          mov rax, SUCCESS
   156                                 readPrintExit:
   157 000000AF 4889EC                  mov rsp, rbp
   158 000000B2 5D                      pop rbp
   159 000000B3 C3                      ret
   160                                 
   161                                 exitLoop:
   162 000000B4 48C7C001000000          mov rax, UNSUCCESS
   163 000000BB EBF0                    jmp readPrintExit
   164                                 
   165                                 [global _start]
   166                                 _start:
   167                                 
   168                                 mainLoop:
   169 000000BD E8C3FFFFFF              call readPrint
   170 000000C2 4883F800                cmp rax, SUCCESS
   171 000000C6 74F3                    je mainLoop
   172                                 
   173                                 
   174                                 exit:
   175 000000C8 48C7C03C000000          mov rax, SYS_exit
   176 000000CF 48C7C700000000          mov rdi, EXIT_SUCCESS
   177 000000D6 0F05                    syscall
