     1                                 %line 1+1 example.asm
     2                                 
     3                                 
     4                                 
     5                                 
     6                                 
     7                                 
     8                                 
     9                                 
    10                                 
    11                                 
    12                                 
    13                                 
    14                                 
    15                                 
    16                                 
    17                                 
    18                                 
    19                                 [section .data]
    20                                 
    21                                  SYS_exit equ 60
    22                                  EXIT_SUCCESS equ 0
    23                                 
    24                                  N equ 7
    25                                 
    26 00000000 0202FA0B00F6FD          list db 2, 2, -6, 11, 0, -10, -3
    27 00000007 07                      listLen db N
    28                                 
    29 00000008 00000000                sum dd 0
    30                                 
    31 0000000C 00000000                nCnt dd 0
    32 00000010 00000000                nSum dd 0
    33                                 
    34 00000014 00000000                tCnt dd 0
    35 00000018 00000000                tSum dd 0
    36                                 
    37 0000001C 03000000                ddThree dd 3
    38 00000020 02000000                ddTwo dd 2
    39                                 
    40                                 [section .bss]
    41                                 
    42 00000000 <gap>                   min resd 1
    43 00000004 <gap>                   mid resd 1
    44 00000008 <gap>                   max resd 1
    45 0000000C <gap>                   avg resd 1
    46                                 
    47 00000010 <gap>                   nAvg resd 1
    48 00000014 <gap>                   tAvg resd 1
    49                                 
    50                                 [section .text]
    51                                 
    52                                 [global _start]
    53                                 
    54                                 _start:
    55 00000000 8A0C25[00000000]        mov cl, byte [listLen]
    56 00000007 48C7C600000000          mov rsi, 0
    57                                 
    58                                 
    59 0000000E 0FB60425[00000000]      movzx eax, byte [list]
    60 00000016 890425[00000000]        mov dword [min], eax
    61 0000001D 890425[00000000]        mov dword [max], eax
    62                                 iteration:
    63 00000024 0FBE86[00000000]        movsx eax, byte [list+rsi]
    64 0000002B 010425[00000000]        add dword [sum], eax
    65                                 
    66 00000032 3B0425[00000000]        cmp eax, dword [min]
    67 00000039 7D05                    jge notMin
    68 0000003B 890425[00000000]        mov dword [min], eax
    69                                 notMin:
    70 00000042 3B0425[00000000]        cmp eax, dword [max]
    71 00000049 7E05                    jle notMax
    72 0000004B 890425[00000000]        mov dword [max], eax
    73                                 notMax:
    74 00000052 83F800                  cmp eax, 0
    75 00000055 7D0C                    jge notNegative
    76                                 
    77                                 
    78 00000057 010425[00000000]        add dword [nSum], eax
    79 0000005E FF0425[00000000]        inc dword [nCnt]
    80                                 notNegative:
    81 00000065 89C3                    mov ebx, eax
    82 00000067 99                      cdq
    83 00000068 F73C25[00000000]        idiv dword [ddThree]
    84 0000006F 83FA00                  cmp edx, 0
    85 00000072 750C                    jne notThreeMultiple
    86                                 
    87                                 
    88 00000074 011C25[00000000]        add dword [tSum], ebx
    89 0000007B FF0425[00000000]        inc dword [tCnt]
    90                                 notThreeMultiple:
    91 00000082 48FFC6                  inc rsi
    92 00000085 E29B                    loop iteration
    93                                 
    94                                 
    95 00000087 8A0425[00000000]        mov al, byte [listLen]
    96 0000008E B400                    mov ah, 0
    97 00000090 F63425[00000000]        div byte [ddTwo]
    98 00000097 80FC00                  cmp ah, 0
    99 0000009A 7412                    je even
   100 0000009C 480FB6C0                movzx rax, al
   101 000000A0 0FBE98[00000000]        movsx ebx, byte [list+rax]
   102 000000A7 891C25[00000000]        mov dword [mid], ebx
   103 000000AE EB26                    jmp odd
   104                                 even:
   105 000000B0 480FB6C0                movzx rax, al
   106 000000B4 0FBE88[00000000]        movsx ecx, byte [list+rax]
   107 000000BB 0FBE98[FFFFFFFF]        movsx ebx, byte [list+rax-1]
   108 000000C2 01D9                    add ecx, ebx
   109 000000C4 89C8                    mov eax, ecx
   110 000000C6 99                      cdq
   111 000000C7 0FB61C25[00000000]      movzx ebx, byte [ddTwo]
   112 000000CF F7FB                    idiv ebx
   113 000000D1 890425[00000000]        mov dword [mid], eax
   114                                 odd:
   115                                 
   116                                 
   117 000000D8 8B0425[00000000]        mov eax, dword [sum]
   118 000000DF 99                      cdq
   119 000000E0 0FB61C25[00000000]      movzx ebx, byte [listLen]
   120 000000E8 F7FB                    idiv ebx
   121 000000EA 890425[00000000]        mov dword [avg], eax
   122                                 
   123                                 
   124 000000F1 8B0425[00000000]        mov eax, dword [nSum]
   125 000000F8 99                      cdq
   126 000000F9 F73C25[00000000]        idiv dword [nCnt]
   127 00000100 890425[00000000]        mov dword [nAvg], eax
   128                                 
   129                                 
   130 00000107 8B0425[00000000]        mov eax, dword [tSum]
   131 0000010E 99                      cdq
   132 0000010F F73C25[00000000]        idiv dword [tCnt]
   133 00000116 890425[00000000]        mov dword [tAvg], eax
   134                                 
   135                                 
   136                                 last:
   137 0000011D 48C7C03C000000          mov rax, SYS_exit
   138 00000124 48C7C700000000          mov rdi, EXIT_SUCCESS
   139 0000012B 0F05                    syscall
