


+------------------------------------------------------------+

Sum:0x402008:	-4
Avg:0x402030:	0
Min:0x402024:	-10
Max:0x40202c:	11
Mid:0x402028:	11

Negative Sum:0x402010:	-19
Negative Cnt:0x40200c:	3
Negative Avg:0x402034:	-6

DivBy3 Sum:0x402018:	-9
DivBy3 Cnt:0x402014:	3
DivBy3 Avg:0x402038:	-3



+------------------------------------------------------------+


