     1                                 %line 1+1 src/output.asm
     2                                 [section .data]
     3                                 
     4                                  NULL equ 0
     5                                 
     6                                  STDOUT equ 1
     7                                 
     8                                  ERROR equ -1
     9                                 
    10                                  FALSE equ 0
    11                                  TRUE equ 1
    12                                 
    13                                  SYS_write equ 1
    14                                 
    15                                 [section .text]
    16                                 
    17                                 
    18                                 
    19                                 
    20                                 
    21                                 
    22                                 
    23                                 
    24                                 
    25                                 [global printString]
    26                                 printString:
    27 00000000 48C7C200000000          mov rdx, 0
    28                                 
    29                                 
    30                                 nextChar:
    31 00000007 803C1700                cmp byte [rdi+rdx], NULL
    32 0000000B 7403                    je print
    33 0000000D 48FFC2                  inc rdx
    34 00000010 EBF3                    jmp nextChar
    35                                 
    36                                 print:
    37                                 
    38 00000012 48C7C001000000          mov rax, SYS_write
    39 00000019 4889FE                  mov rsi, rdi
    40 0000001C 48C7C701000000          mov rdi, STDOUT
    41                                 
    42 00000023 0F05                    syscall
    43                                 
    44 00000025 4883F800                cmp rax, 0
    45 00000029 75FF                    jne printStringErr
    46                                 
    47 0000002B C3                      ret
    48                                 
    49                                 printStringErr:
    50 0000002C 48C7C0FFFFFFFF          mov rax, ERROR
    51 00000033 C3                      ret
    52                                 
    53                                 
    54                                 
    55                                 
    56                                 
    57                                 
    58                                 
    59                                 
    60                                 
    61                                 
    62                                 [global itoa]
    63                                 itoa:
    64 00000034 B90A000000              mov ecx, 10
    65 00000039 49C7C100000000          mov r9, 0
    66                                 
    67 00000040 4883FF00                cmp rdi, 0
    68 00000044 7D04                    jge divideLoop
    69                                 
    70 00000046 48F7DF                  neg rdi
    71                                 
    72 00000049 4889F8                  mov rax, rdi
    73                                 divideLoop:
    74 0000004C BA00000000              mov edx, 0
    75 00000051 F7F1                    div ecx
    76 00000053 52                      push rdx
    77 00000054 49FFC1                  inc r9
    78 00000057 4883F800                cmp rax, 0
    79 0000005B 75ED                    jne divideLoop
    80                                 
    81 0000005D 48C7C200000000          mov rdx, 0
    82                                 stringLoop:
    83 00000064 58                      pop rax
    84 00000065 4883C030                add rax, "0"
    85 00000069 880416                  mov byte [rsi+rdx], al
    86 0000006C 48FFC2                  inc rdx
    87 0000006F 49FFC9                  dec r9
    88 00000072 4983F900                cmp r9, 0
    89 00000076 75EA                    jne stringLoop
    90                                 
    91 00000078 C6041600                mov byte [rsi+rdx], NULL
    92                                 
    93 0000007C C3                      ret
