     1                                 %line 1+1 src/string.asm
     2                                 
     3                                 
     4                                 
     5                                 %line 15+1 src/string.asm
     6                                 
     7                                 [section .data]
     8                                 
     9                                  NULL equ 0
    10                                 
    11                                  FALSE equ 0
    12                                  TRUE equ 1
    13                                 
    14                                 [section .text]
    15                                 
    16                                 
    17                                 
    18                                 
    19                                 
    20                                 
    21                                 
    22                                 
    23                                 
    24                                 
    25                                 [global atoi]
    26                                 atoi:
    27 00000000 48C7C200000000          mov rdx, 0
    28 00000007 48C7C100000000          mov rcx, 0
    29 0000000E 41B900000000            mov r9d, 0
    30 00000014 41B200                  mov r10b, FALSE
    31                                 
    32 00000017 8A0C17                  mov cl, byte [rdi+rdx]
    33                                 
    34 0000001A 80F92D                  cmp cl, "-"
    35 0000001D 7405                    je negative
    36 0000001F 80F92B                  cmp cl, "+"
    37 00000022 7403                    je positive
    38 00000024 EB04                    jmp digitLoop
    39                                 
    40                                 negative:
    41 00000026 41B201                  mov r10b, TRUE
    42                                 positive:
    43 00000029 48FFC2                  inc rdx
    44                                 digitLoop:
    45 0000002C 8A0C17                  mov cl, byte [rdi+rdx]
    46 0000002F 80F900                  cmp cl, 0
    47 00000032 7430                    je end
    48                                 
    49 00000034 80F930                  cmp cl, "0"
    50                                 %line 58+0 src/string.asm
    51 00000037 7208                    jb ..@3.not
    52 00000039 80F939                  cmp cl, "9"
    53 0000003C 7703                    ja ..@3.not
    54 0000003E 41B001                  mov r8b, TRUE
    55 00000041 EB01                    jmp ..@3.end
    56                                 ..@3.not:
    57 00000043 41B000                  mov r8b, FALSE
    58                                 ..@3.end:
    59                                 %line 59+1 src/string.asm
    60 00000046 4180F800                cmp r8b, FALSE
    61 0000004A 7423                    je error
    62                                 
    63 0000004C 80E930                  sub cl, "0"
    64 0000004F 456BC90A                imul r9d, 10
    65                                 
    66                                 
    67 00000053 4180FA00                cmp r10b, FALSE
    68 00000057 7503                    jne subtract
    69 00000059 4101C9                  add r9d, ecx
    70 0000005C EB01                    jmp nextLoop
    71                                 subtract:
    72 0000005E 4129C9                  sub r9d, ecx
    73                                 nextLoop:
    74 00000061 48FFC2                  inc rdx
    75 00000064 EBC4                    jmp digitLoop
    76                                 
    77                                 end:
    78 00000066 44890E                  mov dword [rsi], r9d
    79 00000069 48C7C000000000          mov rax, FALSE
    80 00000070 C3                      ret
    81                                 
    82                                 error:
    83 00000071 48C7C001000000          mov rax, TRUE
    84 00000078 C3                      ret
    85                                 
    86                                 
    87                                 
    88                                 
    89                                 
    90                                 
    91                                 
    92                                 
    93                                 
    94                                 
    95                                 [global itoa]
    96                                 itoa:
    97 00000079 B90A000000              mov ecx, 10
    98 0000007E 49C7C100000000          mov r9, 0
    99 00000085 49C7C000000000          mov r8, 0
   100                                 
   101 0000008C 4883FF00                cmp rdi, 0
   102 00000090 7D08                    jge prepDivideLoop
   103                                 
   104 00000092 48F7DF                  neg rdi
   105 00000095 49C7C001000000          mov r8, TRUE
   106                                 
   107                                 prepDivideLoop:
   108 0000009C 4889F8                  mov rax, rdi
   109                                 divideLoop:
   110 0000009F 48C7C200000000          mov rdx, 0
   111 000000A6 48F7F1                  div rcx
   112 000000A9 52                      push rdx
   113 000000AA 49FFC1                  inc r9
   114 000000AD 4883F800                cmp rax, 0
   115 000000B1 75EA                    jne divideLoop
   116                                 
   117 000000B3 48C7C200000000          mov rdx, 0
   118                                 
   119 000000BA 4983F801                cmp r8, TRUE
   120 000000BE 7504                    jne stringLoop
   121                                 
   122 000000C0 C6062D                  mov byte [rsi], "-"
   123 000000C3 48FFC2                  inc rdx
   124                                 stringLoop:
   125 000000C6 58                      pop rax
   126 000000C7 0430                    add al, "0"
   127 000000C9 880416                  mov byte [rsi+rdx], al
   128 000000CC 48FFC2                  inc rdx
   129 000000CF 49FFC9                  dec r9
   130 000000D2 4983F900                cmp r9, 0
   131 000000D6 75EC                    jne stringLoop
   132                                 
   133 000000D8 C6041600                mov byte [rsi+rdx], NULL
   134                                 
   135 000000DC C3                      ret
