     1                                 %line 1+1 example.asm
     2                                 
     3                                 
     4                                 
     5                                 
     6                                 
     7                                 [section .data]
     8                                 
     9                                 SYS_exit equ 60
    10                                 EXIT_SUCCESS equ 0
    11                                 
    12                                 n equ 250
    13 00000000 00000000               sum dd 0
    14                                 
    15                                 [section .text]
    16                                 
    17                                 [global _start]
    18                                 
    19                                 _start:
    20 00000000 B000                    mov al, 0
    21 00000002 B3FA                    mov bl, n
    22 00000004 B800000000              mov eax, 0
    23 00000009 41B300                  mov r11b, 0
    24 0000000C 450FB6DB                movzx r11d, r11b
    25                                 addNextSquare:
    26 00000010 41FFC3                  inc r11d
    27 00000013 4401D8                  add eax, r11d
    28 00000016 FECB                    dec bl
    29 00000018 80FB00                  cmp bl, 0
    30 0000001B 75F1                    jne addNextSquare
    31 0000001D F7E0                    mul eax
    32 0000001F 890425[00000000]        mov dword [sum], eax
    33                                 
    34                                 
    35                                 last:
    36 00000026 48C7C03C000000          mov rax, SYS_exit
    37 0000002D 48C7C700000000          mov rdi, EXIT_SUCCESS
    38 00000034 0F05                    syscall
