     1                                 %line 1+1 example.asm
     2                                 
     3                                 
     4                                 
     5                                 
     6                                 [section .data]
     7                                 
     8                                 SYS_exit equ 60
     9                                 EXIT_SUCCESS equ 0
    10                                 
    11 00000000 F1                     bNum1 db -15
    12 00000001 09                     bNum2 db 9
    13 00000002 0A                     bNum3 db 10
    14 00000003 FC                     bNum4 db -4
    15 00000004 6FFE                   wNum1 dw -401
    16                                 
    17 00000006 00                     bAns1 db 0
    18 00000007 00                     bAns2 db 0
    19 00000008 00                     bAns3 db 0
    20 00000009 00                     bAns6 db 0
    21 0000000A 00                     bAns7 db 0
    22 0000000B 00                     bAns8 db 0
    23 0000000C 0000                   wAns11 dw 0
    24 0000000E 0000                   wAns12 dw 0
    25 00000010 0000                   wAns13 dw 0
    26 00000012 00                     bAns16 db 0
    27 00000013 00                     bAns17 db 0
    28 00000014 00                     bAns18 db 0
    29 00000015 00                     bRem18 db 0
    30                                 
    31                                 [section .text]
    32                                 
    33                                 [global _start]
    34                                 
    35                                 _start:
    36                                 
    37                                 
    38 00000000 8A0425[00000000]        mov al, byte [bNum1]
    39 00000007 020425[00000000]        add al, byte [bNum2]
    40 0000000E 880425[00000000]        mov byte [bAns1], al
    41                                 
    42                                 
    43 00000015 8A0425[00000000]        mov al, byte [bNum1]
    44 0000001C 020425[00000000]        add al, byte [bNum3]
    45 00000023 880425[00000000]        mov byte [bAns2], al
    46                                 
    47                                 
    48 0000002A 8A0425[00000000]        mov al, byte [bNum3]
    49 00000031 020425[00000000]        add al, byte [bNum4]
    50 00000038 880425[00000000]        mov byte [bAns3], al
    51                                 
    52                                 
    53 0000003F 8A0425[00000000]        mov al, byte [bNum1]
    54 00000046 2A0425[00000000]        sub al, byte [bNum2]
    55 0000004D 880425[00000000]        mov byte [bAns6], al
    56                                 
    57                                 
    58 00000054 8A0425[00000000]        mov al, byte [bNum1]
    59 0000005B 2A0425[00000000]        sub al, byte [bNum3]
    60 00000062 880425[00000000]        mov byte [bAns7], al
    61                                 
    62                                 
    63 00000069 8A0425[00000000]        mov al, byte [bNum2]
    64 00000070 2A0425[00000000]        sub al, byte [bNum4]
    65 00000077 880425[00000000]        mov byte [bAns8], al
    66                                 
    67                                 
    68 0000007E 8A0425[00000000]        mov al, byte [bNum1]
    69 00000085 F62C25[00000000]        imul byte [bNum3]
    70 0000008C 66890425[00000000]      mov word [wAns11], ax
    71                                 
    72                                 
    73 00000094 8A0425[00000000]        mov al, byte [bNum2]
    74 0000009B F6E8                    imul al
    75 0000009D 66890425[00000000]      mov word [wAns12], ax
    76                                 
    77                                 
    78 000000A5 8A0425[00000000]        mov al, byte [bNum2]
    79 000000AC F62C25[00000000]        imul byte [bNum4]
    80 000000B3 66890425[00000000]      mov word [wAns13], ax
    81                                 
    82                                 
    83 000000BB 8A0425[00000000]        mov al, byte [bNum1]
    84 000000C2 6698                    cbw
    85 000000C4 F63C25[00000000]        idiv byte [bNum2]
    86 000000CB 880425[00000000]        mov byte [bAns16], al
    87                                 
    88                                 
    89 000000D2 8A0425[00000000]        mov al, byte [bNum3]
    90 000000D9 6698                    cbw
    91 000000DB F63C25[00000000]        idiv byte [bNum4]
    92 000000E2 880425[00000000]        mov byte [bAns17], al
    93                                 
    94                                 
    95 000000E9 668B0425[00000000]      mov ax, word [wNum1]
    96 000000F1 F63C25[00000000]        idiv byte [bNum4]
    97 000000F8 880425[00000000]        mov byte [bAns18], al
    98                                 
    99                                 
   100 000000FF 668B0425[00000000]      mov ax, word [wNum1]
   101 00000107 F63C25[00000000]        idiv byte [bNum4]
   102 0000010E 882425[00000000]        mov byte [bRem18], ah
   103                                 
   104                                 
   105                                 last:
   106 00000115 48C7C03C000000          mov rax, SYS_exit
   107 0000011C 48C7C700000000          mov rdi, EXIT_SUCCESS
   108 00000123 0F05                    syscall
